Coloraxis options for highcharter objects — hc_colorAxis • highcharter
…
library(dplyr)

data(mpg, package = "ggplot2")

mpgman2 <- mpg %>%
  group_by(manufacturer, year) %>%
  dplyr::summarise(
    n = dplyr::n(),
    displ = mean(displ)
    )
#> `summarise()` regrouping output by 'manufacturer' (override with `.groups` argument)

mpgman2
#> # A tibble: 30 x 4
#> # Groups:   manufacturer [15]
#>    manufacturer  year     n displ
#>    <chr>        <int> <int> <dbl>
#>  1 audi          1999     9  2.36
#>  2 audi          2008     9  2.73
#>  3 chevrolet     1999     7  4.97
#>  4 chevrolet     2008    12  5.12
#>  5 dodge         1999    16  4.32
#>  6 dodge         2008    21  4.42
#>  7 ford          1999    15  4.45
#>  8 ford          2008    10  4.66
#>  9 honda         1999     5  1.6 
#> 10 honda         2008     4  1.85
#> # ... with 20 more rows
…
